%YAML 1.1
%TAG !u! tag:unity3d.com,2011:
--- !u!114 &11400000
MonoBehaviour:
  m_ObjectHideFlags: 0
  m_CorrespondingSourceObject: {fileID: 0}
  m_PrefabInstance: {fileID: 0}
  m_PrefabAsset: {fileID: 0}
  m_GameObject: {fileID: 0}
  m_Enabled: 1
  m_EditorHideFlags: 0
  m_Script: {fileID: 11500000, guid: c10c0be6d28fe4d539c4a39822fe301c, type: 3}
  m_Name: Player_charactor-01_exploded_9
  m_EditorClassIdentifier: 
  m_ApiVersion: 4
  m_Sprite: {fileID: -1882082366995887987, guid: 3a86453fb2c64004cadb9722f84d0e99,
    type: 3}
  m_SharedMesh: {fileID: 5511666471511390420}
  m_SharedMaterials: []
--- !u!114 &1012711095910113391
MonoBehaviour:
  m_ObjectHideFlags: 1
  m_CorrespondingSourceObject: {fileID: 0}
  m_PrefabInstance: {fileID: 0}
  m_PrefabAsset: {fileID: 0}
  m_GameObject: {fileID: 0}
  m_Enabled: 1
  m_EditorHideFlags: 0
  m_Script: {fileID: 11500000, guid: 9e715ea371f114f4a8d2584ad476634d, type: 3}
  m_Name: Player_charactor-01_exploded_9_Data
  m_EditorClassIdentifier: 
  m_PivotPoint: {x: 173, y: 89.5}
  m_Vertices:
  - {x: 210, y: 165}
  - {x: 218, y: 14}
  - {x: 218, y: 51.17819}
  - {x: 168.97122, y: 165}
  - {x: 136.81752, y: 135.48132}
  - {x: 128, y: 14}
  m_BoneWeights:
  - weight0: 1
    weight1: 0
    weight2: 0
    weight3: 0
    boneIndex0: 0
    boneIndex1: 0
    boneIndex2: 0
    boneIndex3: 0
  - weight0: 1
    weight1: 0
    weight2: 0
    weight3: 0
    boneIndex0: 0
    boneIndex1: 0
    boneIndex2: 0
    boneIndex3: 0
  - weight0: 1
    weight1: 0
    weight2: 0
    weight3: 0
    boneIndex0: 0
    boneIndex1: 0
    boneIndex2: 0
    boneIndex3: 0
  - weight0: 1
    weight1: 0
    weight2: 0
    weight3: 0
    boneIndex0: 0
    boneIndex1: 0
    boneIndex2: 0
    boneIndex3: 0
  - weight0: 1
    weight1: 0
    weight2: 0
    weight3: 0
    boneIndex0: 0
    boneIndex1: 0
    boneIndex2: 0
    boneIndex3: 0
  - weight0: 1
    weight1: 0
    weight2: 0
    weight3: 0
    boneIndex0: 0
    boneIndex1: 0
    boneIndex2: 0
    boneIndex3: 0
  m_Edges:
  - index1: 5
    index2: 4
  - index1: 3
    index2: 4
  - index1: 5
    index2: 1
  - index1: 0
    index2: 3
  - index1: 2
    index2: 0
  - index1: 2
    index2: 1
  m_Holes: []
  m_Indices: 030000000000000004000000050000000400000002000000000000000200000004000000010000000500000002000000
  m_BindPoses:
  - bindPose:
      e00: -0.14275745
      e01: -0.98975813
      e02: 0
      e03: 0.6095784
      e10: 0.98975813
      e11: -0.14275745
      e12: 0
      e13: -0.08848168
      e20: 0
      e21: 0
      e22: 1
      e23: 0
      e30: 0
      e31: 0
      e32: 0
      e33: 1
    boneLength: 1.33
    path: bn_leftUpperLeg/bn_leftLowerLeg
    name: bn_leftLowerLeg
    color: {r: 1, g: 0, b: 0, a: 1}
    zOrder: 0
  m_Blendshapes: []
--- !u!43 &5511666471511390420
Mesh:
  m_ObjectHideFlags: 1
  m_CorrespondingSourceObject: {fileID: 0}
  m_PrefabInstance: {fileID: 0}
  m_PrefabAsset: {fileID: 0}
  m_Name: Player_charactor-01_exploded_9
  serializedVersion: 10
  m_SubMeshes:
  - serializedVersion: 2
    firstByte: 0
    indexCount: 12
    topology: 0
    baseVertex: 0
    firstVertex: 0
    vertexCount: 6
    localAABB:
      m_Center: {x: 0, y: 0, z: 0}
      m_Extent: {x: 0.45, y: 0.755, z: 0}
  m_Shapes:
    vertices: []
    shapes: []
    channels: []
    fullWeights: []
  m_BindPose:
  - e00: -0.14275745
    e01: -0.98975813
    e02: 0
    e03: 0.6095784
    e10: 0.98975813
    e11: -0.14275745
    e12: 0
    e13: -0.08848168
    e20: 0
    e21: 0
    e22: 1
    e23: 0
    e30: 0
    e31: 0
    e32: 0
    e33: 1
  m_BoneNameHashes: 
  m_RootBoneNameHash: 0
  m_BonesAABB:
  - m_Min: {x: -0.19050926, y: -0.5122425, z: 0}
    m_Max: {x: 1.4210865, y: 0.46469134, z: 0}
  m_VariableBoneCountWeights:
    m_Data: 
  m_MeshCompression: 0
  m_IsReadable: 1
  m_KeepVertices: 1
  m_KeepIndices: 1
  m_IndexFormat: 0
  m_IndexBuffer: 030000000400050004000200000002000400010005000200
  m_VertexData:
    serializedVersion: 3
    m_VertexCount: 6
    m_Channels:
    - stream: 0
      offset: 0
      format: 0
      dimension: 3
    - stream: 0
      offset: 12
      format: 0
      dimension: 3
    - stream: 0
      offset: 24
      format: 0
      dimension: 4
    - stream: 0
      offset: 0
      format: 0
      dimension: 0
    - stream: 1
      offset: 0
      format: 0
      dimension: 2
    - stream: 0
      offset: 0
      format: 0
      dimension: 0
    - stream: 0
      offset: 0
      format: 0
      dimension: 0
    - stream: 0
      offset: 0
      format: 0
      dimension: 0
    - stream: 0
      offset: 0
      format: 0
      dimension: 0
    - stream: 0
      offset: 0
      format: 0
      dimension: 0
    - stream: 0
      offset: 0
      format: 0
      dimension: 0
    - stream: 0
      offset: 0
      format: 0
      dimension: 0
    - stream: 2
      offset: 0
      format: 0
      dimension: 4
    - stream: 2
      offset: 16
      format: 10
      dimension: 4
    m_DataSize: 480
    _typelessdata: a470bd3eae47413f000000000000000000000000000080bf0000803fb1f62db300000000000080bf6666e63eae4741bf000000000000000000000000000080bf0000803f0000000000000000000080bf6666e63e2a35c4be000000000000000000000000000080bf0000803f5d4a25b200000000000080bfcd0425bdae47413f000000000000000000000000000080bf0000803f0000000000000000000080bf1a41b9bea46ceb3e000000000000000000000000000080bf0000803fbb93b2b200000000000080bf6666e6beae4741bf000000000000000000000000000080bf0000803f11d1283100000000000080bf0000d23e0000a53e0000da3e0000e03c0000da3e77b6cc3da2f8a83e0000a53e49d1883e387b873e0000803e0000e03c0000803f000000000000000000000000000000000000000000000000000000000000803f000000000000000000000000000000000000000000000000000000000000803f000000000000000000000000000000000000000000000000000000000000803f000000000000000000000000000000000000000000000000000000000000803f000000000000000000000000000000000000000000000000000000000000803f00000000000000000000000000000000000000000000000000000000
  m_CompressedMesh:
    m_Vertices:
      m_NumItems: 0
      m_Range: 0
      m_Start: 0
      m_Data: 
      m_BitSize: 0
    m_UV:
      m_NumItems: 0
      m_Range: 0
      m_Start: 0
      m_Data: 
      m_BitSize: 0
    m_Normals:
      m_NumItems: 0
      m_Range: 0
      m_Start: 0
      m_Data: 
      m_BitSize: 0
    m_Tangents:
      m_NumItems: 0
      m_Range: 0
      m_Start: 0
      m_Data: 
      m_BitSize: 0
    m_Weights:
      m_NumItems: 0
      m_Data: 
      m_BitSize: 0
    m_NormalSigns:
      m_NumItems: 0
      m_Data: 
      m_BitSize: 0
    m_TangentSigns:
      m_NumItems: 0
      m_Data: 
      m_BitSize: 0
    m_FloatColors:
      m_NumItems: 0
      m_Range: 0
      m_Start: 0
      m_Data: 
      m_BitSize: 0
    m_BoneIndices:
      m_NumItems: 0
      m_Data: 
      m_BitSize: 0
    m_Triangles:
      m_NumItems: 0
      m_Data: 
      m_BitSize: 0
    m_UVInfo: 0
  m_LocalAABB:
    m_Center: {x: 0, y: 0, z: 0}
    m_Extent: {x: 0.45, y: 0.755, z: 0}
  m_MeshUsageFlags: 0
  m_BakedConvexCollisionMesh: 
  m_BakedTriangleCollisionMesh: 
  m_MeshMetrics[0]: 1
  m_MeshMetrics[1]: 1
  m_MeshOptimizationFlags: 1
  m_StreamData:
    offset: 0
    size: 0
    path: 
